<svg width="37" height="37" viewBox="0 0 37 37" fill="none" xmlns="http://www.w3.org/2000/svg">
<circle cx="18.5" cy="18.5" r="18" fill="#E51A4B"/>
<path d="M24.8 18.5001L16.7 23.1766L16.7 13.8236L24.8 18.5001Z" fill="white"/>
</svg>
