<svg width="80" height="80" viewBox="0 0 80 80" fill="none" xmlns="http://www.w3.org/2000/svg">
    <style>
    @-webkit-keyframes drop-animation {
      from {
        -webkit-transform: scale(1);
                transform: scale(1);
      }
      to {
        -webkit-transform: scale(1.2);
                transform: scale(1.2);
      }
    }
    @keyframes drop-animation {
      from {
        -webkit-transform: scale(1);
                transform: scale(1);
      }
      to {
        -webkit-transform: scale(1.2);
                transform: scale(1.2);
      }
    }
    #integrationArrows {
      -webkit-transform-origin: 50% 50%;
          -ms-transform-origin: 50% 50%;
              transform-origin: 50% 50%;
      -webkit-animation: 1s drop-animation ease-in-out infinite alternate;
              animation: 1s drop-animation ease-in-out infinite alternate;
    }
  </style>
<path d="M80 40C80 62.08 62.08 80 40 80C17.92 80 0 62.08 0 40C0 17.92 17.92 0 40 0C62.08 0 80 17.92 80 40Z" fill="#E51A4B" />
<path
    fill-rule="evenodd"
    clip-rule="evenodd"
    d="M43.8397 18.4152C43.1997 18.4152 42.7197 18.9351 42.7597 19.5751C42.7597 20.1351 43.1997 20.5752 43.7197 20.6552C53.6396 22.2152 61.1996 30.4152 61.1996 40.2552C61.1996 42.6952 60.7196 45.0552 59.8796 47.2152C59.6396 47.7752 59.9196 48.4551 60.4796 48.6951C61.0396 48.9351 61.7196 48.6551 61.9596 48.0951V48.0552C62.9196 45.6152 63.4396 43.0152 63.4396 40.2552C63.4396 29.2552 55.0396 20.1752 44.0797 18.4152C43.9597 18.4152 43.8797 18.4152 43.8397 18.4152Z"
    fill="white"
  />
<path
    fill-rule="evenodd"
    clip-rule="evenodd"
    d="M57.4399 52.2551C57.1199 52.2551 56.7999 52.4151 56.5999 52.6551C52.7599 57.2151 46.8799 60.1351 40.2399 60.1351C33.5999 60.1351 27.7199 57.2151 23.8799 52.6551C23.4799 52.1751 22.7599 52.0951 22.2799 52.4951C21.7999 52.8951 21.7199 53.6151 22.1199 54.0951C22.1199 54.0951 22.1199 54.0951 22.1599 54.1351C26.3999 59.1751 32.9599 62.4151 40.2399 62.4151C47.5599 62.4151 54.0799 59.1751 58.3199 54.1351C58.7199 53.6551 58.6799 52.9351 58.1999 52.5351C57.9999 52.3351 57.7199 52.2551 57.4399 52.2551Z"
    fill="white"
  />
<path
    fill-rule="evenodd"
    clip-rule="evenodd"
    d="M36.8 18.3751C36.72 18.3751 36.68 18.3751 36.6 18.3751C25.56 20.0151 17.04 29.1751 17.04 40.2151C17.04 42.8951 17.52 45.4551 18.44 47.8151C18.64 48.4151 19.32 48.6951 19.88 48.4951C20.48 48.2951 20.76 47.6151 20.56 47.0551C20.56 47.0551 20.56 47.0551 20.56 47.0151C19.76 44.8951 19.32 42.6151 19.32 40.2151C19.32 30.2951 26.92 22.0951 36.96 20.5751C37.56 20.4951 38 19.9351 37.92 19.2951C37.84 18.8151 37.36 18.4151 36.8 18.3751Z"
    fill="white"
  />
<g id="integrationArrows">
  <path
      fill-rule="evenodd"
      clip-rule="evenodd"
      d="M28 39.2151C27.48 39.2551 27 39.6951 26.96 40.2551C26.92 40.7751 27.28 41.3351 27.8 41.4551L33.08 42.7751L15.84 51.9751C15.32 52.2551 15.08 52.9751 15.36 53.4951C15.64 54.0151 16.4 54.2551 16.92 53.9351L34.48 44.5751L33.08 49.7751C32.88 50.3751 33.24 51.0951 33.84 51.2551C34.44 51.4151 35.12 50.9751 35.24 50.3751L37.28 42.7751C37.52 42.0551 37.16 41.4151 36.52 41.2151L28.4 39.2151C28.2 39.2151 28.12 39.2151 28 39.2151Z"
      fill="white"
    />
  <path
      fill-rule="evenodd"
      clip-rule="evenodd"
      d="M51.8798 39.2151C51.8398 39.2151 51.7598 39.2151 51.7198 39.2551L43.5998 41.2551C42.9998 41.4151 42.6398 42.0151 42.7598 42.6151V42.6551L44.8398 50.4151C44.9998 51.0151 45.6398 51.3751 46.2398 51.2151C46.8398 51.0551 47.1998 50.4151 47.0398 49.8151L45.6398 44.6151L63.1198 53.9751C63.6798 54.2951 64.3598 54.0951 64.6398 53.5351C64.9598 52.9751 64.7598 52.2951 64.1998 52.0151C64.1998 52.0151 64.1598 51.9751 64.1198 51.9751L46.9198 42.7751L52.1598 41.4551C52.7598 41.2951 53.1198 40.6951 52.9598 40.0951C52.8398 39.6151 52.3998 39.2551 51.9198 39.2551C51.9598 39.2151 51.9198 39.2151 51.8798 39.2151Z"
      fill="white"
    />
  <path
      fill-rule="evenodd"
      clip-rule="evenodd"
      d="M40.2397 12.8151C39.6397 12.8151 39.1198 13.3751 39.1198 13.9751V32.8151L35.0797 29.0151C34.6397 28.6151 33.8797 28.6151 33.4797 29.0551C33.0797 29.4951 33.0798 30.2551 33.5198 30.6551L39.4797 36.2151C39.9597 36.6951 40.6397 36.5751 41.0397 36.2151L46.9598 30.5351C47.2798 30.2151 47.3997 29.6951 47.2397 29.2951C47.0797 28.8551 46.6398 28.5751 46.1598 28.5751C45.8798 28.5751 45.5997 28.6951 45.3997 28.8951L41.3997 32.7351V13.9351C41.3997 13.3351 40.8397 12.7751 40.2397 12.8151Z"
      fill="white"
    />
</g>
</svg>
