<svg width="602" height="16" viewBox="0 0 602 16" fill="none" xmlns="http://www.w3.org/2000/svg">
<path d="M3.99994 8L598 8.00005" stroke="#BDBDBD" stroke-width="2" stroke-linejoin="round" stroke-dasharray="4 4"/>
<circle cx="598" cy="8" r="4" fill="#465763"/>
<circle cx="4" cy="8" r="4" fill="#465763"/>
<circle cx="135" cy="8" r="8" fill="#E51A4B"/>
</svg>
